An introduction to linelist
…
x <- x %>%
  mutate(
    inferred_outcome = if_else(is.na(date_of_death), "survived", "died")
  ) %>%
  set_tags(outcome = "inferred_outcome")
x
#> 
#> // linelist object
#> # A tibble: 188 × 13
#>    case_ID infector date_of_prodrome date_of_rash date_of_death   age gender
#>      <int>    <int> <date>           <date>       <date>        <dbl> <fct> 
#>  1       1       45 1861-11-21       1861-11-25   NA                7 f     
#>  2       2       45 1861-11-23       1861-11-27   NA                6 f     
#>  3       3      172 1861-11-28       1861-12-02   NA                4 f     
#>  4       4      180 1861-11-27       1861-11-28   NA               13 m     
#>  5       5       45 1861-11-22       1861-11-27   NA                8 f     
#>  6       6      180 1861-11-26       1861-11-29   NA               12 m     
#>  7       7       42 1861-11-24       1861-11-28   NA                6 m     
#>  8       8       45 1861-11-21       1861-11-26   NA               10 m     
#>  9       9      182 1861-11-26       1861-11-30   NA               13 m     
#> 10      10       45 1861-11-21       1861-11-25   NA                7 f     
#> # ℹ 178 more rows
#> # ℹ 6 more variables: family_ID <int>, class <fct>, complications <fct>,
#> #   x_loc <dbl>, y_loc <dbl>, inferred_outcome <chr>
…
Accessing tagged variables

Now that key variables have been tagged in x, we can
used these pre-defined fields in downstream analyses, without having to
worry about variable names and types. We could access tagged variables
using any of the following means:

# select tagged variables only
x %>%
  select(has_tag(c("date_onset", "date_death")))
#> Warning: The following tags have lost their variable:
#>  gender:gender, age:age
#> 
#> // linelist object
#> # A tibble: 188 × 2
#>    date_of_prodrome date_of_death
#>    <date>           <date>       
#>  1 1861-11-21       NA           
#>  2 1861-11-23       NA           
#>  3 1861-11-28       NA           
#>  4 1861-11-27       NA           
#>  5 1861-11-22       NA           
#>  6 1861-11-26       NA           
#>  7 1861-11-24       NA           
#>  8 1861-11-21       NA           
#>  9 1861-11-26       NA           
#> 10 1861-11-21       NA           
#> # ℹ 178 more rows
#> 
#> // tags: date_onset:date_of_prodrome, date_death:date_of_death

# select tagged variables only with renaming on the fly
x %>%
  select(onset = has_tag("date_onset"))
#> Warning: The following tags have lost their variable:
#>  date_death:date_of_death, gender:gender, age:age
#> 
#> // linelist object
#> # A tibble: 188 × 1
#>    onset     
#>    <date>    
#>  1 1861-11-21
#>  2 1861-11-23
#>  3 1861-11-28
#>  4 1861-11-27
#>  5 1861-11-22
#>  6 1861-11-26
#>  7 1861-11-24
#>  8 1861-11-21
#>  9 1861-11-26
#> 10 1861-11-21
#> # ℹ 178 more rows
#> 
#> // tags: date_onset:onset

# get all tagged variables in a data.frame
x %>%
  tags_df()
#> # A tibble: 188 × 4
#>    date_onset date_death gender   age
#>    <date>     <date>     <fct>  <dbl>
#>  1 1861-11-21 NA         f          7
#>  2 1861-11-23 NA         f          6
#>  3 1861-11-28 NA         f          4
#>  4 1861-11-27 NA         m         13
#>  5 1861-11-22 NA         f          8
#>  6 1861-11-26 NA         m         12
#>  7 1861-11-24 NA         m          6
#>  8 1861-11-21 NA         m         10
#>  9 1861-11-26 NA         m         13
#> 10 1861-11-21 NA         f          7
#> # ℹ 178 more rows
…
Because x remains a valid tibble, we can
use any data handling operations implemented in dplyr.
However, some of these operations may cause accidental removal of key
tagged variables. linelist provides a safeguard mechanism
against this. For instance, let’s assume we want to select only some
columns of x:

# hybrid selection
x %>%
  select(1:2)
#> Warning: The following tags have lost their variable:
#>  date_onset:date_of_prodrome, date_death:date_of_death, gender:gender, age:age
#> 
#> // linelist object
#> # A tibble: 188 × 2
#>    case_ID infector
#>      <int>    <int>
#>  1       1       45
#>  2       2       45
#>  3       3      172
#>  4       4      180
#>  5       5       45
#>  6       6      180
#>  7       7       42
#>  8       8       45
#>  9       9      182
#> 10      10       45
#> # ℹ 178 more rows
…
We can also use the has_tag() select helper to select
columns via their tag. For example, to retain the first 2 variables, and
the gender tag:

# hybrid selection
x %>%
  select(1:2, has_tag("gender"))
#> Warning: The following tags have lost their variable:
#>  date_onset:date_of_prodrome, date_death:date_of_death, age:age
#> 
#> // linelist object
#> # A tibble: 188 × 3
#>    case_ID infector gender
#>      <int>    <int> <fct> 
#>  1       1       45 f     
#>  2       2       45 f     
#>  3       3      172 f     
#>  4       4      180 m     
#>  5       5       45 f     
#>  6       6      180 m     
#>  7       7       42 m     
#>  8       8       45 m     
#>  9       9      182 m     
#> 10      10       45 f     
#> # ℹ 178 more rows
…
Again, we observe a warning as before due to the loss of tagged
variables in the operation. This behaviour can be silenced if needed, or
could be changed to issue an error (for stronger pipelines for
instance):

# hybrid selection
x %>%
  select(1:2, has_tag("gender"))
#> Warning: The following tags have lost their variable:
#>  date_onset:date_of_prodrome, date_death:date_of_death, age:age
#> 
#> // linelist object
#> # A tibble: 188 × 3
#>    case_ID infector gender
#>      <int>    <int> <fct> 
#>  1       1       45 f     
#>  2       2       45 f     
#>  3       3      172 f     
#>  4       4      180 m     
#>  5       5       45 f     
#>  6       6      180 m     
#>  7       7       42 m     
#>  8       8       45 m     
#>  9       9      182 m     
#> 10      10       45 f     
#> # ℹ 178 more rows
#> 
#> // tags: gender:gender

# hybrid selection - no warning
lost_tags_action("none")
#> Lost tags will now be ignored.

x %>%
  select(1:2, has_tag("gender"))
#> 
#> // linelist object
#> # A tibble: 188 × 3
#>    case_ID infector gender
#>      <int>    <int> <fct> 
#>  1       1       45 f     
#>  2       2       45 f     
#>  3       3      172 f     
#>  4       4      180 m     
#>  5       5       45 f     
#>  6       6      180 m     
#>  7       7       42 m     
#>  8       8       45 m     
#>  9       9      182 m     
#> 10      10       45 f     
#> # ℹ 178 more rows
…
